\relax 
\providecommand\hyper@newdestlabel[2]{}
\providecommand\HyperFirstAtBeginDocument{\AtBeginDocument}
\HyperFirstAtBeginDocument{\ifx\hyper@anchor\@undefined
\global\let\oldcontentsline\contentsline
\gdef\contentsline#1#2#3#4{\oldcontentsline{#1}{#2}{#3}}
\global\let\oldnewlabel\newlabel
\gdef\newlabel#1#2{\newlabelxx{#1}#2}
\gdef\newlabelxx#1#2#3#4#5#6{\oldnewlabel{#1}{{#2}{#3}}}
\AtEndDocument{\ifx\hyper@anchor\@undefined
\let\contentsline\oldcontentsline
\let\newlabel\oldnewlabel
\fi}
\fi}
\global\let\hyper@last\relax 
\gdef\HyperFirstAtBeginDocument#1{#1}
\providecommand\HyField@AuxAddToFields[1]{}
\providecommand\HyField@AuxAddToCoFields[2]{}
\citation{Applequist72}
\citation{Bounds_Munn_CP79}
\citation{stone}
\citation{silinsh_capek}
\citation{ts_CPL2001}
\citation{ts_prb01}
\citation{davino_JCTC15}
\citation{davino_JCTC15}
\@writefile{toc}{\contentsline {section}{\numberline {1}Introduction}{2}{section.1}}
\@writefile{toc}{\contentsline {subsection}{\numberline {1.1}Acknowledgments}{2}{subsection.1.1}}
\@writefile{toc}{\contentsline {subsection}{\numberline {1.2}Copyrights and disclaimers}{2}{subsection.1.2}}
\@writefile{toc}{\contentsline {subsection}{\numberline {1.3}Program overview}{3}{subsection.1.3}}
\@writefile{lof}{\contentsline {figure}{\numberline {1}{\ignorespaces Left: Flowchart of a self-consistent ME calculation with MESCal. The zero-th order value of induced dipoles is used to compute potential and fields at atomic sites and update dipoles. This process is repeated until convergence of the system energy. Right: Energy of a spherical cluster of pentacene molecules at different iterations. Convergence is achieved within about 30 iterations. }}{4}{figure.1}}
\newlabel{f:sc}{{1}{4}{Left: Flowchart of a self-consistent ME calculation with \mescal . The zero-th order value of induced dipoles is used to compute potential and fields at atomic sites and update dipoles. This process is repeated until convergence of the system energy. Right: Energy of a spherical cluster of pentacene molecules at different iterations. Convergence is achieved within about 30 iterations}{figure.1}{}}
\@writefile{toc}{\contentsline {section}{\numberline {2}The MESCal\ input file}{5}{section.2}}
\@writefile{toc}{\contentsline {subsubsection}{\numberline {2.0.1}List of available input records}{5}{subsubsection.2.0.1}}
\newlabel{s:inputs}{{2.0.1}{5}{List of available input records}{subsubsection.2.0.1}{}}
\citation{Ren_Ponder_JPCB03}
\citation{davino_JCTC15}
\citation{esp}
\citation{CRChandbook}
\@writefile{toc}{\contentsline {section}{\numberline {3}Molecular input files}{10}{section.3}}
\newlabel{s:molinp}{{3}{10}{Molecular input files}{section.3}{}}
\@writefile{toc}{\contentsline {subsection}{\numberline {3.1}Microelectostatics input (mei) file}{10}{subsection.3.1}}
\@writefile{toc}{\contentsline {subsubsection}{\numberline {3.1.1}Rigid-molecule mei file}{10}{subsubsection.3.1.1}}
\@writefile{lof}{\contentsline {figure}{\numberline {2}{\ignorespaces Naphthalene molecule. Atomic numbering must be consistent with the ordering of atoms in the pdb and mei (Figure \ref  {f:mei_arp}) files.}}{13}{figure.2}}
\newlabel{f:a2}{{2}{13}{Naphthalene molecule. Atomic numbering must be consistent with the ordering of atoms in the pdb and mei (Figure \ref {f:mei_arp}) files}{figure.2}{}}
\@writefile{lof}{\contentsline {figure}{\numberline {3}{\ignorespaces Example mei file for rigid molecules relative to the (neutral) naphthalene molecule in Figure \ref  {f:a2}.}}{13}{figure.3}}
\newlabel{f:mei_arp}{{3}{13}{Example mei file for rigid molecules relative to the (neutral) naphthalene molecule in Figure \ref {f:a2}}{figure.3}{}}
\citation{Davino_Mothy_JPCC13}
\@writefile{toc}{\contentsline {subsubsection}{\numberline {3.1.2}Free-input mei file}{14}{subsubsection.3.1.2}}
\@writefile{lof}{\contentsline {figure}{\numberline {4}{\ignorespaces Example of mei file with free-format input for neutral P3HT decamer.}}{15}{figure.4}}
\newlabel{f:mei_af}{{4}{15}{Example of mei file with free-format input for neutral P3HT decamer}{figure.4}{}}
\@writefile{toc}{\contentsline {subsubsection}{\numberline {3.1.3}One-site molecule mei file}{16}{subsubsection.3.1.3}}
\@writefile{toc}{\contentsline {subsection}{\numberline {3.2}Charge redistribution input (cri) and atom-atom polarizability (aap) files}{16}{subsection.3.2}}
\citation{ts_CPL2001}
\citation{ts_prb01}
\@writefile{lof}{\contentsline {figure}{\numberline {5}{\ignorespaces Example of atom-atom polarizability (aap) file for neutral naphthalene. The tensor is given in the $i\ j\ \Pi _{ij}$ format with $\Pi _{ij}$ in \r A$^{-1}$.}}{17}{figure.5}}
\newlabel{f:aap}{{5}{17}{Example of atom-atom polarizability (aap) file for neutral naphthalene. The tensor is given in the $i\ j\ \Pi _{ij}$ format with $\Pi _{ij}$ in \AA $^{-1}$}{figure.5}{}}
\@writefile{toc}{\contentsline {section}{\numberline {4}Compiling MESCal}{18}{section.4}}
\@writefile{toc}{\contentsline {section}{\numberline {5}Running MESCal}{18}{section.5}}
\citation{davino_JCTC15}
\citation{davino_JCTC15}
\citation{davino_JCTC15}
\citation{davino_JCTC15}
\citation{Dav16_rev}
\@writefile{toc}{\contentsline {section}{\numberline {6}Calculation of polarization energies}{19}{section.6}}
\newlabel{e:PolEne}{{6}{19}{Calculation of polarization energies}{equation.6.5}{}}
\bibstyle{unsrt}
\bibdata{mecr}
\bibcite{Applequist72}{1}
\bibcite{Bounds_Munn_CP79}{2}
\bibcite{stone}{3}
\bibcite{silinsh_capek}{4}
\bibcite{ts_CPL2001}{5}
\bibcite{ts_prb01}{6}
\bibcite{davino_JCTC15}{7}
\bibcite{Ren_Ponder_JPCB03}{8}
\bibcite{esp}{9}
\bibcite{CRChandbook}{10}
\bibcite{Davino_Mothy_JPCC13}{11}
\bibcite{Dav16_rev}{12}
